<?xml version="1.0" encoding="iso-8859-1"?>
<!-- Generator: Adobe Illustrator 21.0.0, SVG Export Plug-In . SVG Version: 6.00 Build 0)  -->
<svg xmlns="http://www.w3.org/2000/svg" xmlns:xlink="http://www.w3.org/1999/xlink" version="1.1" id="Capa_1" x="0px" y="0px" viewBox="0 0 512.088 512.088" style="enable-background:new 0 0 512.088 512.088;" xml:space="preserve" width="512" height="512">
<g>
	<path d="M403.546,0H207.544c-20.678,0-37.5,16.822-37.5,37.5v75.977c-23.246,6.993-44.34,18.81-61.111,34.633   c-3.013,2.842-3.151,7.589-0.308,10.602c2.842,3.012,7.588,3.151,10.602,0.308c25.502-24.061,62.282-37.86,100.909-37.86   c73.939,0,134.094,49.688,134.094,110.763c0,31.534-16.351,61.625-44.889,82.663c-3.217,1.899-4.572,5.923-3.072,9.415   l17.363,40.424c0.493,1.148,0.155,2.22-0.326,2.84c-0.489,0.63-0.886,0.568-1.035,0.544c-23.272-3.62-41.128-11.173-52.506-17.248   c6.179-1.844,12.242-4.03,18.166-6.583c3.804-1.639,5.559-6.052,3.92-9.855c-1.639-3.805-6.053-5.56-9.855-3.92   c-18.953,8.167-40.343,12.483-61.859,12.483c-73.939,0-134.094-49.688-134.094-110.763c0-18.026,5.088-35.22,15.122-51.104   c2.212-3.502,1.167-8.134-2.335-10.347c-3.501-2.212-8.134-1.167-10.347,2.335c-11.41,18.061-17.44,38.503-17.44,59.115   c0,54.528,41.359,101.056,99.003,118.452v33.668c0,4.142,3.358,7.5,7.5,7.5c4.142,0,7.5-3.358,7.5-7.5v-29.885   c11.258,2.3,23.007,3.528,35.091,3.528c9.764,0,19.346-0.784,28.709-2.318c8.073,5.749,32.782,21.301,71.119,27.263   c0.833,0.13,1.662,0.193,2.483,0.193c4.916,0,9.54-2.279,12.71-6.366c3.957-5.102,4.822-11.981,2.256-17.954l-15.038-35.01   c29.856-23.722,46.853-56.791,46.853-91.571c0-69.346-66.883-125.763-149.094-125.763c-11.923,0-23.697,1.208-35.091,3.538V37.5   c0-12.407,10.093-22.5,22.5-22.5h31.371c7.614,15.287,23.369,25.233,40.734,25.233h51.792c17.366,0,33.121-9.947,40.735-25.233   h31.37c12.407,0,22.5,10.093,22.5,22.5v65.4c0,4.142,3.358,7.5,7.5,7.5c4.142,0,7.5-3.358,7.5-7.5V37.5   C441.046,16.822,424.224,0,403.546,0z M331.441,25.233h-51.792c-8.863,0-17.098-3.866-22.778-10.233h97.347   C348.54,21.367,340.304,25.233,331.441,25.233z"/>
	<path d="M433.546,125.4c-4.142,0-7.5,3.358-7.5,7.5v341.688c0,12.407-10.093,22.5-22.5,22.5H207.544   c-12.407,0-22.5-10.093-22.5-22.5v-60.545c0-4.142-3.358-7.5-7.5-7.5c-4.142,0-7.5,3.358-7.5,7.5v60.545   c0,20.678,16.822,37.5,37.5,37.5h196.002c20.678,0,37.5-16.822,37.5-37.5V132.9C441.046,128.758,437.688,125.4,433.546,125.4z"/>
	<path d="M336.365,478.473c4.142,0,7.5-3.358,7.5-7.5c0-4.142-3.358-7.5-7.5-7.5h-61.639c-4.142,0-7.5,3.358-7.5,7.5   c0,4.142,3.358,7.5,7.5,7.5H336.365z"/>
	<path d="M216.264,298.179c1.122,0,2.244-0.251,3.279-0.755c2.977-1.447,72.813-36.019,65.91-86.477   c-3.412-24.944-21.032-35.211-36.383-36.501c-12.933-1.087-25.077,3.484-32.806,11.575c-7.729-8.091-19.874-12.662-32.807-11.575   c-15.352,1.291-32.971,11.557-36.383,36.501c-6.902,50.457,62.934,85.029,65.91,86.477   C214.02,297.927,215.142,298.179,216.264,298.179z M161.936,212.98c2.707-19.789,16.831-23.087,22.779-23.587   c0.83-0.07,1.654-0.104,2.473-0.104c10.298,0,19.478,5.404,21.919,13.194c0.98,3.128,3.878,5.257,7.157,5.257   s6.176-2.129,7.157-5.257c2.636-8.41,13.124-14.042,24.393-13.09c5.947,0.5,20.072,3.799,22.779,23.587   c2.758,20.162-12.496,38.093-25.778,49.585c-11.206,9.695-22.99,16.612-28.554,19.648c-5.518-3.006-17.143-9.825-28.323-19.455   C163.677,241.861,160.407,224.154,161.936,212.98z"/>
</g>















</svg>
